数据模型有更新
--------------------------------------------------
数据模型【articles】已更新: 参数有变化
--------------------------------------------------
异步接口有更新
--------------------------------------------------
异步接口【articles-新建】已更新, 请求参数有变化
--------------------------------------------------
异步接口【articles-修改】已更新, 请求参数有变化