数据模型有更新
--------------------------------------------------
新增了数据模型:【top】
--------------------------------------------------
异步接口有更新
--------------------------------------------------
新增了异步接口:【top-获取列表】
--------------------------------------------------
业务分组有更新